…
```r
count(pg, Breeder)
```

```
## # A tibble: 90 x 2
##    Breeder              n
##    <chr>            <int>
##  1 4-Birds              4
##  2 7-11 Syndicate       2
##  3 A P C Loft          12
##  4 Alias-Alias         11
##  5 Alonso Loft          3
##  6 American Lofts       4
##  7 Andy Skwiat         10
##  8 B D P Loft           3
##  9 Baldwin & Tilson     7
## 10 Baysideboys          3
## # … with 80 more rows
```

```r
#or with magrittr piping
pg %>% count(Breeder)
```

```
## # A tibble: 90 x 2
##    Breeder              n
##    <chr>            <int>
##  1 4-Birds              4
##  2 7-11 Syndicate       2
##  3 A P C Loft          12
##  4 Alias-Alias         11
##  5 Alonso Loft          3
##  6 American Lofts       4
##  7 Andy Skwiat         10
##  8 B D P Loft           3
##  9 Baldwin & Tilson     7
## 10 Baysideboys          3
## # … with 80 more rows
```
…
